{
  "type": "service_account",
  "project_id": "traffic-control-93e25",
  "private_key_id": "96022ea33ed69e15f334b385186ab60102dfa1e4",
  "private_key": "-----BEGIN PRIVATE KEY-----\nMIIEvQIBADANBgkqhkiG9w0BAQEFAASCBKcwggSjAgEAAoIBAQDHMhY4yDK321kY\nyuVzhkbJhLsisKjA1QWO9ttpcIO/1a2HC0/lwlxiFZDJCCJw/7TJXmIA0Y0GNVnY\nVcHub5cVivMawn//XtrrE7TGwHeX2th7Mlj7IbSqa65FZbUjiyNg7vjAD2xxYjXH\nLmupfS/i2ByHuuz6pOay4gCv0IPMejMlmBBFsyXsZ8aAHxTjK0NCsaB6QYI+0yM0\nn1Bg3bIpMng1vKTfDbpzQxYwge4LRbq7UjutxWrhsriImrSXXUBAK/nsyFi3FdBM\nom4CI2PxhiGrJvksGlyqsO2DC3NA7h7qpTa6QrrGFEY/tb41ssK1Sgw7TtbtLzy1\n3v7kBvWjAgMBAAECggEACIXIFZ3bLaqg4UKtFohENxMKvq04SyfSGQ/Oy3AY8vg9\neG2veXEbasbpbvB+KL+ICKWVI9vTYNSfh3YD2iPEHxPW2uo/d7mjPDOXpHlPpJuk\nb4Dz9aq3hCMfTbDQUzj8xoTy96SxSxicnG0MBjBpABenANeqk/7CMB0jUmJlgTYV\n7hFNzvnIMnlQ+XvUogKEyooD3Qkvc5ZJtaIWP663tnQzv4kFEns+Npe6pYJ93cM/\n6KknPT3DFbgb0OVx2DaQFIyEPMKHW1zxq2HEUl0A0jgvsdDwQjHB4B75JMsLZtKQ\nopUN+fiwZfZsQeU+5IGw224QI6a1+4jEo+5mAv9LoQKBgQDm5cZFnjFQO6qpsyN0\n0fA/0BrdoVnzGpC3GQDS9V8fzjszBidFkn+XRutCQP51ZV7wD2vK2ELiq32yEYUb\nOHLTtpOf+4gH979Hv0YqSv/WAw8sMQP9lQhBfIrBUmqZOUwK9WAfa0artDl9rIP3\n696NBX5yGPRNvOqDJX2HPBXFvQKBgQDc2gAusQogiBBtQKzqZghcdUEWMqVqL8ls\n2HE3ga7VFCBWAjq/wWNYsF2OzRTf+W3CpTrPM0XhXbi4OOLzyYPHL7QIwMsT8+X1\ntws4BHBRvuXNfQAZnXXMII87jKPBZDZlSpIYfjdecIwQfSVJO4h9hv4JugN4jMa3\nrJabrsLu3wKBgQCT6NFQO3wfh3lV6BlodivO1QLAwuGaJ4RYpj2u5dwfxb6KewCh\nQq1VPOrrsDLRBTUB1v8YG90M0wpcDXkU7N4x3R1IOJr1b7Eqxs6tvQmSELeheWyy\n/sshGCTSnncG3Htn8bO3rMLCr1q8tMx8/q277K8JbA7j1YbsqBF3lffkiQKBgDU8\nv8qBlsVcx0juzD/8tItFIJlvP/ym5FE+o5wTwMdQgLL6+pp6za31Zbgkq6GKCPFg\nzxpfa7r10q9l1x+ZNhDv6OArSUjYBFkE9MleGI08DT1JopqKIHlCaASc1GSr+YjV\nPv50fnhffQQEhtZuaWqI/ffuRSPsG4LvMab5q7fVAoGALAuDdJNwpJoBb6PsOG7z\nB/W0BN0D56nVhKSyS6UZmkiy+BhSNlchUuzKETocRHirkK0ozAEDnyQ/rNb7C9x7\npEOsMI2sRhh4QqN5HPsBLrgADiUfuh+j0MFyYxwc6WFBQcQh09+ylkJ+BcfXGkcM\ni6r6bVSPecB//JvTTSGc/Uw=\n-----END PRIVATE KEY-----\n",
  "client_email": "firebase-adminsdk-2ofus@traffic-control-93e25.iam.gserviceaccount.com",
  "client_id": "106138681527945993639",
  "auth_uri": "https://accounts.google.com/o/oauth2/auth",
  "token_uri": "https://oauth2.googleapis.com/token",
  "auth_provider_x509_cert_url": "https://www.googleapis.com/oauth2/v1/certs",
  "client_x509_cert_url": "https://www.googleapis.com/robot/v1/metadata/x509/firebase-adminsdk-2ofus%40traffic-control-93e25.iam.gserviceaccount.com"
}
